{
	"RequestItems": {
		"CustomerDB": [
			{
				"PutRequest": {
					"Item": {
						"DeviceID": {
							"S": "01234D6F97D648E0EE"
						},
						"CustomerID": {
							"S": "12345678"
						},
						"CustomerAccountID": {
							"S": "575090121483"
						}
					}
				}
			},
			{
				"PutRequest": {
					"Item": {
						"DeviceID": {
							"S": "01234D6F97D648E0EF"
						},
						"CustomerID": {
							"S": "23456789"
						},
						"CustomerAccountID": {
							"S": "575090121484"
						}
					}
				}
			},
			{
				"PutRequest": {
					"Item": {
						"DeviceID": {
							"S": "01234D6F97D648E0F0"
						},
						"CustomerID": {
							"S": "34567890"
						},
						"CustomerAccountID": {
							"S": "575090121485"
						}
					}
				}
			}
		],
		"BillingDB": [
			{
				"PutRequest": {
					"Item": {
						"CustomerIdTimestampMetric": {
							"S": "234567891624873020000RouterPutBlock"
						},
						"Metric": {
							"S": "RouterPutBlock"
						},
						"Timestamp": {
							"S": "1624873020000"
						},
						"Value": {
							"N": "1"
						}
					}
				}
			},
			{
				"PutRequest": {
					"Item": {
						"CustomerIdTimestampMetric": {
							"S": "123456781624873140000BrokerDecryptBlock"
						},
						"Metric": {
							"S": "BrokerDecryptBlock"
						},
						"Timestamp": {
							"S": "1624873140000"
						},
						"Value": {
							"N": "1"
						}
					}
				}
			},
			{
				"PutRequest": {
					"Item": {
						"CustomerIdTimestampMetric": {
							"S": "345678901624874250000RouterPutBlock"
						},
						"Metric": {
							"S": "RouterPutBlock"
						},
						"Timestamp": {
							"S": "1624874250000"
						},
						"Value": {
							"N": "1"
						}
					}
				}
			}
		],
		"BillingAggregatedDB": [
			{
				"PutRequest": {
					"Item": {
						"CustomerIdTimestampMetric": {
							"S": "234567891624873020000RouterPutData"
						},
						"Value": {
							"N": "1"
						}
					}
				}
			},
			{
				"PutRequest": {
					"Item": {
						"CustomerIdTimestampMetric": {
							"S": "123456781624873140000DatastoreDecryptData"
						},
						"Value": {
							"N": "1"
						}
					}
				}
			},
			{
				"PutRequest": {
					"Item": {
						"CustomerIdTimestampMetric": {
							"S": "345678901624874250000RouterPutData"
						},
						"Value": {
							"N": "1"
						}
					}
				}
			}
		]
	}
}
